mc20_13TeV.346525.PowhegPythia8EvtGen_A14NNPDF23_NNPDF30ME_ttH125_gamgam.deriv.DAOD_PHYSLITE.e7488_s3681_r13167_p6266
mc20_13TeV.346525.PowhegPythia8EvtGen_A14NNPDF23_NNPDF30ME_ttH125_gamgam.deriv.DAOD_PHYSLITE.e7488_s3681_r13144_p6266
mc20_13TeV.346525.PowhegPythia8EvtGen_A14NNPDF23_NNPDF30ME_ttH125_gamgam.deriv.DAOD_PHYSLITE.e7488_s3681_r13145_p6266
