mc20_13TeV.346311.PowhegPythia8EvtGen_NNPDF30_AZNLO_WpH125J_Wincl_H_incl_MINLO.deriv.DAOD_PHYS.e7151_s3681_r13144_p6266
mc20_13TeV.346311.PowhegPythia8EvtGen_NNPDF30_AZNLO_WpH125J_Wincl_H_incl_MINLO.deriv.DAOD_PHYS.e7151_s3681_r13145_p6266
mc20_13TeV.346311.PowhegPythia8EvtGen_NNPDF30_AZNLO_WpH125J_Wincl_H_incl_MINLO.deriv.DAOD_PHYS.e7151_s3681_r13167_p6266

mc20_13TeV.346312.PowhegPythia8EvtGen_NNPDF30_AZNLO_WmH125J_Wincl_H_incl_MINLO.deriv.DAOD_PHYS.e7151_s3681_r13144_p6266
mc20_13TeV.346312.PowhegPythia8EvtGen_NNPDF30_AZNLO_WmH125J_Wincl_H_incl_MINLO.deriv.DAOD_PHYS.e7151_s3681_r13145_p6266
mc20_13TeV.346312.PowhegPythia8EvtGen_NNPDF30_AZNLO_WmH125J_Wincl_H_incl_MINLO.deriv.DAOD_PHYS.e7151_s3681_r13167_p6266

mc20_13TeV.346310.PowhegPythia8EvtGen_NNPDF30_AZNLO_ZH125J_Zincl_H_incl_MINLO.deriv.DAOD_PHYS.e7151_s3681_r13144_p6266
mc20_13TeV.346310.PowhegPythia8EvtGen_NNPDF30_AZNLO_ZH125J_Zincl_H_incl_MINLO.deriv.DAOD_PHYS.e7151_s3681_r13145_p6266
mc20_13TeV.346310.PowhegPythia8EvtGen_NNPDF30_AZNLO_ZH125J_Zincl_H_incl_MINLO.deriv.DAOD_PHYS.e7151_s3681_r13167_p6266