mc20_13TeV.700488.Sh_2211_WlvWqq.deriv.DAOD_PHYS.e8338_s3681_r13167_p5980
mc20_13TeV.700489.Sh_2211_WlvZqq.deriv.DAOD_PHYS.e8338_s3681_r13167_p5980
mc20_13TeV.700490.Sh_2211_WlvZbb.deriv.DAOD_PHYS.e8338_s3681_r13167_p5980
mc20_13TeV.700491.Sh_2211_WqqZvv.deriv.DAOD_PHYS.e8338_s3681_r13167_p5980
mc20_13TeV.700492.Sh_2211_WqqZll.deriv.DAOD_PHYS.e8338_s3681_r13167_p5980
mc20_13TeV.700493.Sh_2211_ZqqZll.deriv.DAOD_PHYS.e8338_s3681_r13167_p5980
mc20_13TeV.700494.Sh_2211_ZbbZll.deriv.DAOD_PHYS.e8338_s3681_r13167_p5980
mc20_13TeV.700495.Sh_2211_ZqqZvv.deriv.DAOD_PHYS.e8338_s3681_r13167_p5980
mc20_13TeV.700496.Sh_2211_ZbbZvv.deriv.DAOD_PHYS.e8338_s3681_r13167_p5980
mc20_13TeV.364302.Sherpa_222_NNPDF30NNLO_ggZllZqq.deriv.DAOD_PHYS.e6273_s3681_r13167_p5980
mc20_13TeV.364303.Sherpa_222_NNPDF30NNLO_ggZvvZqq.deriv.DAOD_PHYS.e6273_s3681_r13167_p5980
mc20_13TeV.364304.Sherpa_222_NNPDF30NNLO_ggWmlvWpqq.deriv.DAOD_PHYS.e6273_s3681_r13167_p5980
mc20_13TeV.364305.Sherpa_222_NNPDF30NNLO_ggWplvWmqq.deriv.DAOD_PHYS.e6273_s3681_r13167_p5980
mc20_13TeV.700600.Sh_2212_llll.deriv.DAOD_PHYS.e8433_s3681_r13167_p5980
mc20_13TeV.700601.Sh_2212_lllv.deriv.DAOD_PHYS.e8433_s3681_r13167_p5980
mc20_13TeV.700602.Sh_2212_llvv_os.deriv.DAOD_PHYS.e8433_s3681_r13167_p5980
mc20_13TeV.700603.Sh_2212_llvv_ss.deriv.DAOD_PHYS.e8433_s3681_r13167_p5980
mc20_13TeV.700604.Sh_2212_lvvv.deriv.DAOD_PHYS.e8433_s3681_r13167_p5980
mc20_13TeV.700605.Sh_2212_vvvv.deriv.DAOD_PHYS.e8433_s3681_r13167_p5980

mc20_13TeV.700488.Sh_2211_WlvWqq.deriv.DAOD_PHYS.e8338_s3681_r13144_p5980
mc20_13TeV.700489.Sh_2211_WlvZqq.deriv.DAOD_PHYS.e8338_s3681_r13144_p5980
mc20_13TeV.700490.Sh_2211_WlvZbb.deriv.DAOD_PHYS.e8338_s3681_r13144_p5980
mc20_13TeV.700491.Sh_2211_WqqZvv.deriv.DAOD_PHYS.e8338_s3681_r13144_p5980
mc20_13TeV.700492.Sh_2211_WqqZll.deriv.DAOD_PHYS.e8338_s3681_r13144_p5980
mc20_13TeV.700493.Sh_2211_ZqqZll.deriv.DAOD_PHYS.e8338_s3681_r13144_p5980
mc20_13TeV.700494.Sh_2211_ZbbZll.deriv.DAOD_PHYS.e8338_s3681_r13144_p5980
mc20_13TeV.700495.Sh_2211_ZqqZvv.deriv.DAOD_PHYS.e8338_s3681_r13144_p5980
mc20_13TeV.700496.Sh_2211_ZbbZvv.deriv.DAOD_PHYS.e8338_s3681_r13144_p5980
mc20_13TeV.364302.Sherpa_222_NNPDF30NNLO_ggZllZqq.deriv.DAOD_PHYS.e6273_s3681_r13144_p5980
mc20_13TeV.364303.Sherpa_222_NNPDF30NNLO_ggZvvZqq.deriv.DAOD_PHYS.e6273_s3681_r13144_p5980
mc20_13TeV.364304.Sherpa_222_NNPDF30NNLO_ggWmlvWpqq.deriv.DAOD_PHYS.e6273_s3681_r13144_p5980
mc20_13TeV.364305.Sherpa_222_NNPDF30NNLO_ggWplvWmqq.deriv.DAOD_PHYS.e6273_s3681_r13144_p5980
mc20_13TeV.700600.Sh_2212_llll.deriv.DAOD_PHYS.e8433_s3681_r13144_p5980
mc20_13TeV.700601.Sh_2212_lllv.deriv.DAOD_PHYS.e8433_s3681_r13144_p5980
mc20_13TeV.700602.Sh_2212_llvv_os.deriv.DAOD_PHYS.e8433_s3681_r13144_p5980
mc20_13TeV.700603.Sh_2212_llvv_ss.deriv.DAOD_PHYS.e8433_s3681_r13144_p5980
mc20_13TeV.700604.Sh_2212_lvvv.deriv.DAOD_PHYS.e8433_s3681_r13144_p5980
mc20_13TeV.700605.Sh_2212_vvvv.deriv.DAOD_PHYS.e8433_s3681_r13144_p5980

mc20_13TeV.700488.Sh_2211_WlvWqq.deriv.DAOD_PHYS.e8338_s3681_r13145_p5980
mc20_13TeV.700489.Sh_2211_WlvZqq.deriv.DAOD_PHYS.e8338_s3681_r13145_p5980
mc20_13TeV.700490.Sh_2211_WlvZbb.deriv.DAOD_PHYS.e8338_s3681_r13145_p5980
mc20_13TeV.700491.Sh_2211_WqqZvv.deriv.DAOD_PHYS.e8338_s3681_r13145_p5980
mc20_13TeV.700492.Sh_2211_WqqZll.deriv.DAOD_PHYS.e8338_s3681_r13145_p5980
mc20_13TeV.700493.Sh_2211_ZqqZll.deriv.DAOD_PHYS.e8338_s3681_r13145_p5980
mc20_13TeV.700494.Sh_2211_ZbbZll.deriv.DAOD_PHYS.e8338_s3681_r13145_p5980
mc20_13TeV.700495.Sh_2211_ZqqZvv.deriv.DAOD_PHYS.e8338_s3681_r13145_p5980
mc20_13TeV.700496.Sh_2211_ZbbZvv.deriv.DAOD_PHYS.e8338_s3681_r13145_p5980
mc20_13TeV.364302.Sherpa_222_NNPDF30NNLO_ggZllZqq.deriv.DAOD_PHYS.e6273_s3681_r13145_p5980
mc20_13TeV.364303.Sherpa_222_NNPDF30NNLO_ggZvvZqq.deriv.DAOD_PHYS.e6273_s3681_r13145_p5980
mc20_13TeV.364304.Sherpa_222_NNPDF30NNLO_ggWmlvWpqq.deriv.DAOD_PHYS.e6273_s3681_r13145_p5980
mc20_13TeV.364305.Sherpa_222_NNPDF30NNLO_ggWplvWmqq.deriv.DAOD_PHYS.e6273_s3681_r13145_p5980
mc20_13TeV.700600.Sh_2212_llll.deriv.DAOD_PHYS.e8433_s3681_r13145_p5980
mc20_13TeV.700601.Sh_2212_lllv.deriv.DAOD_PHYS.e8433_s3681_r13145_p5980
mc20_13TeV.700602.Sh_2212_llvv_os.deriv.DAOD_PHYS.e8433_s3681_r13145_p5980
mc20_13TeV.700603.Sh_2212_llvv_ss.deriv.DAOD_PHYS.e8433_s3681_r13145_p5980
mc20_13TeV.700604.Sh_2212_lvvv.deriv.DAOD_PHYS.e8433_s3681_r13145_p5980
mc20_13TeV.700605.Sh_2212_vvvv.deriv.DAOD_PHYS.e8433_s3681_r13145_p5980
